bcd_counter.vcd
$date
	Sat Mar 18 23:06:52 2023
$end
$version
	Icarus Verilog
$end
$timescale
	10ps
$end
$scope module bcd_counter_tb $end
$var wire 1 ! tc $end
$var wire 4 " q [3:0] $end
$var reg 1 # clk $end
$var reg 1 $ clr $end
$scope module dut $end
$var wire 1 # clk $end
$var wire 1 $ clr $end
$var reg 4 % q [3:0] $end
$var reg 1 ! tc $end
$upscope $end
$upscope $end
$enddefinitions $end
#0
$dumpvars
bx %
1$
0#
bx "
x!
$end
#500
b0 "
b0 %
1#
#1000
0#
#1500
1#
#2000
0#
0$
#2500
0!
b1 "
b1 %
1#
#3000
0#
#3500
b10 "
b10 %
1#
#4000
0#
#4500
b11 "
b11 %
1#
#5000
0#
#5500
b100 "
b100 %
1#
#6000
0#
#6500
b101 "
b101 %
1#
#7000
0#
#7500
b110 "
b110 %
1#
#8000
0#
#8500
b111 "
b111 %
1#
#9000
0#
#9500
b1000 "
b1000 %
1#
#10000
0#
#10500
b1001 "
b1001 %
1#
#11000
0#
#11500
1!
b0 "
b0 %
1#
#12000
0#
#12500
0!
b1 "
b1 %
1#
#13000
0#
#13500
b10 "
b10 %
1#
#14000
0#
#14500
b11 "
b11 %
1#
#15000
0#
#15500
b100 "
b100 %
1#
#16000
0#
#16500
b101 "
b101 %
1#
#17000
0#
#17500
b110 "
b110 %
1#
#18000
0#
#18500
b111 "
b111 %
1#
#19000
0#
#19500
b1000 "
b1000 %
1#
#20000
0#
#20500
b1001 "
b1001 %
1#
#21000
0#
#21500
1!
b0 "
b0 %
1#
#22000
0#
#22500
0!
b1 "
b1 %
1#
#23000
0#
#23500
b10 "
b10 %
1#
#24000
0#
#24500
b11 "
b11 %
1#
#25000
0#
#25500
b100 "
b100 %
1#
#26000
0#
#26500
b101 "
b101 %
1#
#27000
0#
#27500
b110 "
b110 %
1#
#28000
0#
#28500
b111 "
b111 %
1#
#29000
0#
#29500
b1000 "
b1000 %
1#
#30000
0#
#30500
b1001 "
b1001 %
1#
#31000
0#
#31500
1!
b0 "
b0 %
1#
#32000
0#
#32500
0!
b1 "
b1 %
1#
#33000
0#
#33500
b10 "
b10 %
1#
#34000
0#
#34500
b11 "
b11 %
1#
#35000
0#
#35500
b100 "
b100 %
1#
#36000
0#
#36500
b101 "
b101 %
1#
#37000
0#
#37500
b110 "
b110 %
1#
#38000
0#
#38500
b111 "
b111 %
1#
#39000
0#
#39500
b1000 "
b1000 %
1#
#40000
0#
#40500
b1001 "
b1001 %
1#
#41000
0#
#41500
1!
b0 "
b0 %
1#
#42000
0#
#42500
0!
b1 "
b1 %
1#
#43000
0#
#43500
b10 "
b10 %
1#
#44000
0#
#44500
b11 "
b11 %
1#
#45000
0#
#45500
b100 "
b100 %
1#
#46000
0#
#46500
b101 "
b101 %
1#
#47000
0#
#47500
b110 "
b110 %
1#
#48000
0#
#48500
b111 "
b111 %
1#
#49000
0#
#49500
b1000 "
b1000 %
1#
