reset_gen.vcd
$date
	Sat Apr  1 00:53:00 2023
$end
$version
	Icarus Verilog
$end
$timescale
	1ns
$end
$scope module reset_gen_tb $end
$var wire 1 ! rst $end
$var reg 1 " clk $end
$scope module dut $end
$var wire 1 " clk $end
$var wire 1 ! rst_p $end
$var reg 4 # rst_cnt [3:0] $end
$upscope $end
$upscope $end
$enddefinitions $end
#0
$dumpvars
b0 #
0"
0!
$end
#5
b1 #
1"
#10
0"
#15
b10 #
1"
#20
0"
#25
b11 #
1"
#30
0"
#35
b100 #
1"
#40
0"
#45
b101 #
1"
#50
0"
#55
b110 #
1"
#60
0"
#65
b111 #
1"
#70
0"
#75
1!
b1000 #
1"
